<?xml version="1.0" encoding="utf-8"?>
<!-- Generator: Adobe Illustrator 13.0.0, SVG Export Plug-In . SVG Version: 6.00 Build 14948)  -->
<!DOCTYPE svg PUBLIC "-//W3C//DTD SVG 1.1//EN" "http://www.w3.org/Graphics/SVG/1.1/DTD/svg11.dtd">
<svg version="1.1" id="Calque_1" xmlns="http://www.w3.org/2000/svg" xmlns:xlink="http://www.w3.org/1999/xlink" x="0px" y="0px"
	 width="60px" height="60px" viewBox="0 0 60 60" enable-background="new 0 0 60 60" xml:space="preserve">
<circle stroke="#FFFFFF" stroke-width="0.5" cx="29.983" cy="29.942" r="29.966"/>
<circle stroke="#FFFFFF" stroke-width="0.5" cx="17.5" cy="17.527" r="7.551"/>
<circle stroke="#FFFFFF" stroke-width="0.5" cx="15.562" cy="37.493" r="4.048"/>
<circle stroke="#FFFFFF" stroke-width="0.5" cx="41.344" cy="45.859" r="7.789"/>
<circle stroke="#FFFFFF" stroke-width="0.5" cx="41.956" cy="18.582" r="3.095"/>
<line stroke="#FFFFFF" stroke-width="0.5" x1="6.684" y1="47.527" x2="77.395" y2="-23.183"/>
<line stroke="#FFFFFF" stroke-width="0.5" x1="28.656" y1="25.35" x2="17.092" y2="56.507"/>
<line stroke="#FFFFFF" stroke-width="0.5" x1="26.14" y1="32.563" x2="40.697" y2="30.859"/>
<line stroke="#FFFFFF" stroke-width="0.5" x1="39.9" y1="31.793" x2="42.418" y2="25.874"/>
<line stroke="#FFFFFF" stroke-width="0.5" x1="42.486" y1="26.078" x2="48.607" y2="31.656"/>
<line stroke="#FFFFFF" stroke-width="0.5" x1="28.316" y1="25.962" x2="7.432" y2="10.86"/>
<line stroke="#FFFFFF" stroke-width="0.5" x1="19.541" y1="19.092" x2="26.003" y2="10.452"/>
<line stroke="#FFFFFF" stroke-width="0.5" x1="25.867" y1="10.792" x2="30.085" y2="14.602"/>
<line stroke="#FFFFFF" stroke-width="0.5" x1="29.677" y1="14.398" x2="41.786" y2="12.221"/>
<line stroke="#FFFFFF" stroke-width="0.5" x1="40.085" y1="31.2" x2="48.182" y2="53.105"/>
</svg>
